^C:\DOCUMENTS AND SETTINGS\DICE\바탕 화면\COCOS2D-2.0-X-2.0.4\COCOSDENSHION\PROJ.WIN32\DEBUG.WIN32\MCIPLAYER.OBJ|C:\DOCUMENTS AND SETTINGS\DICE\바탕 화면\COCOS2D-2.0-X-2.0.4\COCOSDENSHION\PROJ.WIN32\DEBUG.WIN32\SIMPLEAUDIOENGINE.OBJ
C:\WINDOWS\SYSTEM32\KERNEL32.DLL
C:\WINDOWS\SYSTEM32\NTDLL.DLL
C:\WINDOWS\SYSTEM32\WSOCK32.DLL
C:\WINDOWS\SYSTEM32\WS2_32.DLL
C:\WINDOWS\SYSTEM32\USER32.DLL
C:\WINDOWS\SYSTEM32\GDI32.DLL
C:\PROGRAM FILES\MICROSOFT SDKS\WINDOWS\V7.0A\LIB\WINMM.LIB
C:\PROGRAM FILES\MICROSOFT SDKS\WINDOWS\V7.0A\LIB\KERNEL32.LIB
C:\PROGRAM FILES\MICROSOFT SDKS\WINDOWS\V7.0A\LIB\USER32.LIB
C:\PROGRAM FILES\MICROSOFT SDKS\WINDOWS\V7.0A\LIB\GDI32.LIB
C:\PROGRAM FILES\MICROSOFT SDKS\WINDOWS\V7.0A\LIB\WINSPOOL.LIB
C:\PROGRAM FILES\MICROSOFT SDKS\WINDOWS\V7.0A\LIB\COMDLG32.LIB
C:\PROGRAM FILES\MICROSOFT SDKS\WINDOWS\V7.0A\LIB\ADVAPI32.LIB
C:\PROGRAM FILES\MICROSOFT SDKS\WINDOWS\V7.0A\LIB\SHELL32.LIB
C:\PROGRAM FILES\MICROSOFT SDKS\WINDOWS\V7.0A\LIB\OLE32.LIB
C:\PROGRAM FILES\MICROSOFT SDKS\WINDOWS\V7.0A\LIB\OLEAUT32.LIB
C:\PROGRAM FILES\MICROSOFT SDKS\WINDOWS\V7.0A\LIB\UUID.LIB
C:\PROGRAM FILES\MICROSOFT SDKS\WINDOWS\V7.0A\LIB\ODBC32.LIB
C:\PROGRAM FILES\MICROSOFT SDKS\WINDOWS\V7.0A\LIB\ODBCCP32.LIB
C:\DOCUMENTS AND SETTINGS\DICE\바탕 화면\COCOS2D-2.0-X-2.0.4\COCOSDENSHION\PROJ.WIN32\DEBUG.WIN32\MCIPLAYER.OBJ
C:\DOCUMENTS AND SETTINGS\DICE\바탕 화면\COCOS2D-2.0-X-2.0.4\COCOSDENSHION\PROJ.WIN32\DEBUG.WIN32\SIMPLEAUDIOENGINE.OBJ
C:\PROGRAM FILES\MICROSOFT VISUAL STUDIO 10.0\VC\BIN\1042\LINKUI.DLL
C:\PROGRAM FILES\MICROSOFT VISUAL STUDIO 10.0\VC\LIB\MSVCRTD.LIB
C:\PROGRAM FILES\MICROSOFT VISUAL STUDIO 10.0\VC\LIB\OLDNAMES.LIB
C:\PROGRAM FILES\MICROSOFT VISUAL STUDIO 10.0\VC\LIB\MSVCPRTD.LIB
C:\DOCUMENTS AND SETTINGS\DICE\바탕 화면\COCOS2D-2.0-X-2.0.4\DEBUG.WIN32\LIBCOCOSDENSHION.EXP
